%YAML 1.1
%TAG !u! tag:unity3d.com,2011:
--- !u!114 &2849234244470660430
MonoBehaviour:
  m_ObjectHideFlags: 0
  m_CorrespondingSourceObject: {fileID: 0}
  m_PrefabInstance: {fileID: 0}
  m_PrefabAsset: {fileID: 0}
  m_GameObject: {fileID: 203103090423762370}
  m_Enabled: 1
  m_EditorHideFlags: 0
  m_Script: {fileID: 11500000, guid: 1681d28e2f2b37b438d92273a82092f7, type: 3}
  m_Name: 
  m_EditorClassIdentifier: 
  damage: 0
--- !u!1001 &1680267971710378013
PrefabInstance:
  m_ObjectHideFlags: 0
  serializedVersion: 2
  m_Modification:
    m_TransformParent: {fileID: 0}
    m_Modifications:
    - target: {fileID: 1549260253864750554, guid: d24660592c804b1448c99f7fe1205750,
        type: 3}
      propertyPath: m_RootOrder
      value: 0
      objectReference: {fileID: 0}
    - target: {fileID: 1549260253864750554, guid: d24660592c804b1448c99f7fe1205750,
        type: 3}
      propertyPath: m_LocalScale.x
      value: 1
      objectReference: {fileID: 0}
    - target: {fileID: 1549260253864750554, guid: d24660592c804b1448c99f7fe1205750,
        type: 3}
      propertyPath: m_LocalScale.y
      value: 1
      objectReference: {fileID: 0}
    - target: {fileID: 1549260253864750554, guid: d24660592c804b1448c99f7fe1205750,
        type: 3}
      propertyPath: m_LocalPosition.x
      value: 0
      objectReference: {fileID: 0}
    - target: {fileID: 1549260253864750554, guid: d24660592c804b1448c99f7fe1205750,
        type: 3}
      propertyPath: m_LocalPosition.y
      value: 2
      objectReference: {fileID: 0}
    - target: {fileID: 1549260253864750554, guid: d24660592c804b1448c99f7fe1205750,
        type: 3}
      propertyPath: m_LocalPosition.z
      value: 0
      objectReference: {fileID: 0}
    - target: {fileID: 1549260253864750554, guid: d24660592c804b1448c99f7fe1205750,
        type: 3}
      propertyPath: m_LocalRotation.w
      value: 1
      objectReference: {fileID: 0}
    - target: {fileID: 1549260253864750554, guid: d24660592c804b1448c99f7fe1205750,
        type: 3}
      propertyPath: m_LocalRotation.x
      value: 0
      objectReference: {fileID: 0}
    - target: {fileID: 1549260253864750554, guid: d24660592c804b1448c99f7fe1205750,
        type: 3}
      propertyPath: m_LocalRotation.y
      value: 0
      objectReference: {fileID: 0}
    - target: {fileID: 1549260253864750554, guid: d24660592c804b1448c99f7fe1205750,
        type: 3}
      propertyPath: m_LocalRotation.z
      value: 0
      objectReference: {fileID: 0}
    - target: {fileID: 1549260253864750554, guid: d24660592c804b1448c99f7fe1205750,
        type: 3}
      propertyPath: m_LocalEulerAnglesHint.x
      value: 0
      objectReference: {fileID: 0}
    - target: {fileID: 1549260253864750554, guid: d24660592c804b1448c99f7fe1205750,
        type: 3}
      propertyPath: m_LocalEulerAnglesHint.y
      value: 0
      objectReference: {fileID: 0}
    - target: {fileID: 1549260253864750554, guid: d24660592c804b1448c99f7fe1205750,
        type: 3}
      propertyPath: m_LocalEulerAnglesHint.z
      value: 0
      objectReference: {fileID: 0}
    - target: {fileID: 1549260253864750556, guid: d24660592c804b1448c99f7fe1205750,
        type: 3}
      propertyPath: m_FlipY
      value: 0
      objectReference: {fileID: 0}
    - target: {fileID: 1549260253864750556, guid: d24660592c804b1448c99f7fe1205750,
        type: 3}
      propertyPath: m_Size.x
      value: 0.2
      objectReference: {fileID: 0}
    - target: {fileID: 1549260253864750556, guid: d24660592c804b1448c99f7fe1205750,
        type: 3}
      propertyPath: m_Size.y
      value: 0.3
      objectReference: {fileID: 0}
    - target: {fileID: 1549260253864750556, guid: d24660592c804b1448c99f7fe1205750,
        type: 3}
      propertyPath: m_Sprite
      value: 
      objectReference: {fileID: -694999502653597974, guid: ec200df1fb007704d820271ccab35133,
        type: 3}
    - target: {fileID: 1549260253864750556, guid: d24660592c804b1448c99f7fe1205750,
        type: 3}
      propertyPath: m_Color.b
      value: 1
      objectReference: {fileID: 0}
    - target: {fileID: 1549260253864750556, guid: d24660592c804b1448c99f7fe1205750,
        type: 3}
      propertyPath: m_Color.g
      value: 1
      objectReference: {fileID: 0}
    - target: {fileID: 1549260253864750556, guid: d24660592c804b1448c99f7fe1205750,
        type: 3}
      propertyPath: m_Color.r
      value: 1
      objectReference: {fileID: 0}
    - target: {fileID: 1549260253864750556, guid: d24660592c804b1448c99f7fe1205750,
        type: 3}
      propertyPath: m_SortingOrder
      value: 8
      objectReference: {fileID: 0}
    - target: {fileID: 1549260253864750557, guid: d24660592c804b1448c99f7fe1205750,
        type: 3}
      propertyPath: m_Size.x
      value: 0.04
      objectReference: {fileID: 0}
    - target: {fileID: 1549260253864750557, guid: d24660592c804b1448c99f7fe1205750,
        type: 3}
      propertyPath: m_Size.y
      value: 0.175
      objectReference: {fileID: 0}
    - target: {fileID: 1549260253864750557, guid: d24660592c804b1448c99f7fe1205750,
        type: 3}
      propertyPath: m_Offset.x
      value: 0
      objectReference: {fileID: 0}
    - target: {fileID: 1549260253864750557, guid: d24660592c804b1448c99f7fe1205750,
        type: 3}
      propertyPath: m_SpriteTilingProperty.newSize.x
      value: 0.2
      objectReference: {fileID: 0}
    - target: {fileID: 1549260253864750557, guid: d24660592c804b1448c99f7fe1205750,
        type: 3}
      propertyPath: m_SpriteTilingProperty.newSize.y
      value: 0.3
      objectReference: {fileID: 0}
    - target: {fileID: 1549260253864750557, guid: d24660592c804b1448c99f7fe1205750,
        type: 3}
      propertyPath: m_SpriteTilingProperty.oldSize.x
      value: 3.2
      objectReference: {fileID: 0}
    - target: {fileID: 1549260253864750557, guid: d24660592c804b1448c99f7fe1205750,
        type: 3}
      propertyPath: m_SpriteTilingProperty.oldSize.y
      value: 3.2
      objectReference: {fileID: 0}
    - target: {fileID: 1549260253864750559, guid: d24660592c804b1448c99f7fe1205750,
        type: 3}
      propertyPath: m_Name
      value: Enemy's Bullet 2
      objectReference: {fileID: 0}
    - target: {fileID: 1549260253864750559, guid: d24660592c804b1448c99f7fe1205750,
        type: 3}
      propertyPath: m_Layer
      value: 13
      objectReference: {fileID: 0}
    - target: {fileID: 1549260253864750559, guid: d24660592c804b1448c99f7fe1205750,
        type: 3}
      propertyPath: m_IsActive
      value: 1
      objectReference: {fileID: 0}
    m_RemovedComponents:
    - {fileID: -5467608884156616570, guid: d24660592c804b1448c99f7fe1205750, type: 3}
  m_SourcePrefab: {fileID: 100100000, guid: d24660592c804b1448c99f7fe1205750, type: 3}
--- !u!1 &203103090423762370 stripped
GameObject:
  m_CorrespondingSourceObject: {fileID: 1549260253864750559, guid: d24660592c804b1448c99f7fe1205750,
    type: 3}
  m_PrefabInstance: {fileID: 1680267971710378013}
  m_PrefabAsset: {fileID: 0}
