%YAML 1.1
%TAG !u! tag:unity3d.com,2011:
--- !u!114 &2452748787886394246
MonoBehaviour:
  m_ObjectHideFlags: 0
  m_CorrespondingSourceObject: {fileID: 0}
  m_PrefabInstance: {fileID: 0}
  m_PrefabAsset: {fileID: 0}
  m_GameObject: {fileID: 7073593446640390639}
  m_Enabled: 1
  m_EditorHideFlags: 0
  m_Script: {fileID: 11500000, guid: 1681d28e2f2b37b438d92273a82092f7, type: 3}
  m_Name: 
  m_EditorClassIdentifier: 
  damage: 0
--- !u!60 &629991391450354855
PolygonCollider2D:
  m_ObjectHideFlags: 0
  m_CorrespondingSourceObject: {fileID: 0}
  m_PrefabInstance: {fileID: 0}
  m_PrefabAsset: {fileID: 0}
  m_GameObject: {fileID: 7073593446640390639}
  m_Enabled: 1
  m_Density: 1
  m_Material: {fileID: 0}
  m_IsTrigger: 0
  m_UsedByEffector: 0
  m_UsedByComposite: 0
  m_Offset: {x: 0, y: 0}
  m_SpriteTilingProperty:
    border: {x: 0, y: 0, z: 0, w: 0}
    pivot: {x: 0.5, y: 0.5}
    oldSize: {x: 3.2, y: 3.2}
    newSize: {x: 0.2, y: 0.3}
    adaptiveTilingThreshold: 0.5
    drawMode: 1
    adaptiveTiling: 0
  m_AutoTiling: 1
  m_Points:
    m_Paths:
    - - {x: 1.02, y: -0.5}
      - {x: 1.12, y: -0.29999998}
      - {x: 1.12, y: 0.32}
      - {x: 1.05, y: 0.35}
      - {x: 1.01, y: 0.53999996}
      - {x: 0.61, y: 0.94}
      - {x: 0.29999998, y: 1.02}
      - {x: -0.32, y: 1.02}
      - {x: -0.34, y: 0.93}
      - {x: -0.59999996, y: 0.91999996}
      - {x: -0.62, y: 0.9}
      - {x: -0.71, y: 0.84}
      - {x: -0.90999997, y: 0.64}
      - {x: -1.03, y: 0.51}
      - {x: -1.12, y: 0.29999998}
      - {x: -1.12, y: -0.32}
      - {x: -1.05, y: -0.35}
      - {x: -1.01, y: -0.53999996}
      - {x: -0.74, y: -0.81}
      - {x: -0.59999996, y: -0.91999996}
      - {x: -0.29999998, y: -1.02}
      - {x: 0.32, y: -1.02}
      - {x: 0.34, y: -0.93}
      - {x: 0.61, y: -0.93}
      - {x: 0.83, y: -0.74}
--- !u!1001 &8622810252614925360
PrefabInstance:
  m_ObjectHideFlags: 0
  serializedVersion: 2
  m_Modification:
    m_TransformParent: {fileID: 0}
    m_Modifications:
    - target: {fileID: 1549260253864750554, guid: d24660592c804b1448c99f7fe1205750,
        type: 3}
      propertyPath: m_RootOrder
      value: 0
      objectReference: {fileID: 0}
    - target: {fileID: 1549260253864750554, guid: d24660592c804b1448c99f7fe1205750,
        type: 3}
      propertyPath: m_LocalScale.x
      value: 1
      objectReference: {fileID: 0}
    - target: {fileID: 1549260253864750554, guid: d24660592c804b1448c99f7fe1205750,
        type: 3}
      propertyPath: m_LocalScale.y
      value: 1
      objectReference: {fileID: 0}
    - target: {fileID: 1549260253864750554, guid: d24660592c804b1448c99f7fe1205750,
        type: 3}
      propertyPath: m_LocalPosition.x
      value: 0
      objectReference: {fileID: 0}
    - target: {fileID: 1549260253864750554, guid: d24660592c804b1448c99f7fe1205750,
        type: 3}
      propertyPath: m_LocalPosition.y
      value: 2
      objectReference: {fileID: 0}
    - target: {fileID: 1549260253864750554, guid: d24660592c804b1448c99f7fe1205750,
        type: 3}
      propertyPath: m_LocalPosition.z
      value: 0
      objectReference: {fileID: 0}
    - target: {fileID: 1549260253864750554, guid: d24660592c804b1448c99f7fe1205750,
        type: 3}
      propertyPath: m_LocalRotation.w
      value: 1
      objectReference: {fileID: 0}
    - target: {fileID: 1549260253864750554, guid: d24660592c804b1448c99f7fe1205750,
        type: 3}
      propertyPath: m_LocalRotation.x
      value: 0
      objectReference: {fileID: 0}
    - target: {fileID: 1549260253864750554, guid: d24660592c804b1448c99f7fe1205750,
        type: 3}
      propertyPath: m_LocalRotation.y
      value: 0
      objectReference: {fileID: 0}
    - target: {fileID: 1549260253864750554, guid: d24660592c804b1448c99f7fe1205750,
        type: 3}
      propertyPath: m_LocalRotation.z
      value: 0
      objectReference: {fileID: 0}
    - target: {fileID: 1549260253864750554, guid: d24660592c804b1448c99f7fe1205750,
        type: 3}
      propertyPath: m_LocalEulerAnglesHint.x
      value: 0
      objectReference: {fileID: 0}
    - target: {fileID: 1549260253864750554, guid: d24660592c804b1448c99f7fe1205750,
        type: 3}
      propertyPath: m_LocalEulerAnglesHint.y
      value: 0
      objectReference: {fileID: 0}
    - target: {fileID: 1549260253864750554, guid: d24660592c804b1448c99f7fe1205750,
        type: 3}
      propertyPath: m_LocalEulerAnglesHint.z
      value: 0
      objectReference: {fileID: 0}
    - target: {fileID: 1549260253864750556, guid: d24660592c804b1448c99f7fe1205750,
        type: 3}
      propertyPath: m_FlipY
      value: 0
      objectReference: {fileID: 0}
    - target: {fileID: 1549260253864750556, guid: d24660592c804b1448c99f7fe1205750,
        type: 3}
      propertyPath: m_Size.x
      value: 0.2
      objectReference: {fileID: 0}
    - target: {fileID: 1549260253864750556, guid: d24660592c804b1448c99f7fe1205750,
        type: 3}
      propertyPath: m_Size.y
      value: 0.3
      objectReference: {fileID: 0}
    - target: {fileID: 1549260253864750556, guid: d24660592c804b1448c99f7fe1205750,
        type: 3}
      propertyPath: m_Sprite
      value: 
      objectReference: {fileID: 6834878090180741684, guid: ec200df1fb007704d820271ccab35133,
        type: 3}
    - target: {fileID: 1549260253864750556, guid: d24660592c804b1448c99f7fe1205750,
        type: 3}
      propertyPath: m_Color.b
      value: 1
      objectReference: {fileID: 0}
    - target: {fileID: 1549260253864750556, guid: d24660592c804b1448c99f7fe1205750,
        type: 3}
      propertyPath: m_Color.g
      value: 1
      objectReference: {fileID: 0}
    - target: {fileID: 1549260253864750556, guid: d24660592c804b1448c99f7fe1205750,
        type: 3}
      propertyPath: m_Color.r
      value: 1
      objectReference: {fileID: 0}
    - target: {fileID: 1549260253864750556, guid: d24660592c804b1448c99f7fe1205750,
        type: 3}
      propertyPath: m_SortingOrder
      value: 8
      objectReference: {fileID: 0}
    - target: {fileID: 1549260253864750557, guid: d24660592c804b1448c99f7fe1205750,
        type: 3}
      propertyPath: m_Size.x
      value: 0.1
      objectReference: {fileID: 0}
    - target: {fileID: 1549260253864750557, guid: d24660592c804b1448c99f7fe1205750,
        type: 3}
      propertyPath: m_Size.y
      value: 0.2
      objectReference: {fileID: 0}
    - target: {fileID: 1549260253864750557, guid: d24660592c804b1448c99f7fe1205750,
        type: 3}
      propertyPath: m_Offset.x
      value: 0
      objectReference: {fileID: 0}
    - target: {fileID: 1549260253864750557, guid: d24660592c804b1448c99f7fe1205750,
        type: 3}
      propertyPath: m_SpriteTilingProperty.newSize.x
      value: 0.2
      objectReference: {fileID: 0}
    - target: {fileID: 1549260253864750557, guid: d24660592c804b1448c99f7fe1205750,
        type: 3}
      propertyPath: m_SpriteTilingProperty.newSize.y
      value: 0.3
      objectReference: {fileID: 0}
    - target: {fileID: 1549260253864750557, guid: d24660592c804b1448c99f7fe1205750,
        type: 3}
      propertyPath: m_SpriteTilingProperty.oldSize.x
      value: 2.56
      objectReference: {fileID: 0}
    - target: {fileID: 1549260253864750557, guid: d24660592c804b1448c99f7fe1205750,
        type: 3}
      propertyPath: m_SpriteTilingProperty.oldSize.y
      value: 2.56
      objectReference: {fileID: 0}
    - target: {fileID: 1549260253864750559, guid: d24660592c804b1448c99f7fe1205750,
        type: 3}
      propertyPath: m_Name
      value: Enemy's Bullet 4
      objectReference: {fileID: 0}
    - target: {fileID: 1549260253864750559, guid: d24660592c804b1448c99f7fe1205750,
        type: 3}
      propertyPath: m_Layer
      value: 13
      objectReference: {fileID: 0}
    - target: {fileID: 1549260253864750559, guid: d24660592c804b1448c99f7fe1205750,
        type: 3}
      propertyPath: m_IsActive
      value: 1
      objectReference: {fileID: 0}
    m_RemovedComponents:
    - {fileID: -5467608884156616570, guid: d24660592c804b1448c99f7fe1205750, type: 3}
    - {fileID: 1549260253864750557, guid: d24660592c804b1448c99f7fe1205750, type: 3}
  m_SourcePrefab: {fileID: 100100000, guid: d24660592c804b1448c99f7fe1205750, type: 3}
--- !u!1 &7073593446640390639 stripped
GameObject:
  m_CorrespondingSourceObject: {fileID: 1549260253864750559, guid: d24660592c804b1448c99f7fe1205750,
    type: 3}
  m_PrefabInstance: {fileID: 8622810252614925360}
  m_PrefabAsset: {fileID: 0}
